{
	"main": { "isRoleSelect": "X", "isWithCancel":""
		, "optionField": "option", "optionVal": "onlymine"
		, "optionLabel": "Do not show items outside the scope of the selected role."
		, "optionLabelSecondLine": "(A role with restricted scope may not display all items.)"
		, "id": "my_form", "method": "POST", "action": "https://test.ytria.net/post.nsf/Post?OpenAgent" },
		
	"items": [
		{"hbs": "RegularSession" 
			, "type": "basic_user", "btnValue": "CUR-SESS"
			, "label" : "Continue", "desc": "Your usual credentials will be used for the session." 
			, "introrole": "Select a role:"
		}
		,{"hbs": "SessionCard", "btnValue" : "1234567", "sessionName" : "Role for House",		"type" : "role_select", "roledesc": "Role for doing stuff"}
		,{"hbs": "SessionCard", "btnValue" : "1234567a","sessionName" : "Role for Canada",		"type" : "role_select", "roledesc": "Role for doing stuff" }
		,{"hbs": "SessionCard", "btnValue" : "1234567", "sessionName" : "Role for Users X",		"type" : "role_select", "roledesc": "Role for doing stuff"}
		,{"hbs": "SessionCard", "btnValue" : "1234567", "sessionName" : "Role for Users Y",		"type" : "role_select", "roledesc": "Role for doing stuff"}
		,{"hbs": "SessionCard", "btnValue" : "1234567", "sessionName" : "Role for Users Z",		"type" : "role_select", "roledesc": "Role for doing stuff"}
		,{"hbs": "SessionCard", "btnValue" : "1234567", "sessionName" : "Role for Users ZZ",	"type" : "role_select", "roledesc": "Role for doing stuff"}
		],
	"dump": [
	]
}