{
	"main": { "id": "my_form", "method": "POST", "action": "https://test.ytria.net/post.nsf/Post?OpenAgent" },
	"items": [
        { "hbs":"licenseUserCountChange",
            "labelIntro":"Modify your license capacity","labelSubIntro":"Raise or reduce the number of Office 365 tenant users allowed with your license.",
            "currentUsrLabel":"Your current license's user capacity:", "currentUsrQuantity":"0",
            "newUsrLabel":"Requested user capacity:","newUrsName":"NEWUSRNAME","minNewUsr":"10",

            "addRemoveLabel":"User capacity difference:",
            "updateWhenLabel":"When do you want your new license capacity to take effect?",
            "chargeNow":"Remaining balance due immediately","chargeNext":"Your next invoice amount",
            "labelNet":"NET","labelVat":"VAT",
            "labelTotal":"Total","validateLabel":"Preview Pricing",
            "labelFooter":"Abstract Spirit is heavy",

            "warningIcon":"fas fa-exclamation-triangle",
            "keyValidation":"keyValidation",
            "keyVal_popup": "Sxxxxxxxx",
            "warningMsg" : "To verify you are the authorised user, please enter the subscription code (Sxxxxxxxx) for this license.",
            "warningSubMsg" : "Your subscription code is located on your invoice below the cleverbridge reference number.",
            "choices":
				[{"id":"next","label":"Start of next billing cycle","attribute":"checked"},{"id":"now","label":"Immediately"}]
		}
		, { "hbs":"Button","choices": [ 
			{ "type":"submit", "label":"Apply","attribute":"post","name":"BTN_OK"}
			, { "type":"submit","label":"Cancel","attribute":"cancel","name":"BTN_CANCEL"}
			]
		}
	]
}
